"store","websites","attribute_set","type","sku","name","description"
"admin","base","Default","downloadable","2","Civil Society In Muslim World: Contemporary Perspectives","<p>Well before the events of September 11, 2001, and their continuing aftermath, the global discourse on civil society - in its varied imaginings and practices - had caught the attention of citizens and communities across the Muslim world. From Indonesia, Pakistan, Tajikistan and Iran to Turkey, Egypt and the Maghreb, the clamour for human rights, pluralism and gender equity were at the forefront of the wider quest for accountable governance and participatory politics. The communalisms of old that dominated the public and private spheres were no longer tenable, even if the appeal for ‘religious’ solidarity continued to command respect - a trend reinforced by perspectives from the growing Muslim diasporas in the West.</p>
<p>A fresh urgency attends those pursuits today: patterns of political violence, and some of the responses to them, threaten to undermine the ethical legacy of Muslim civilisations and its role in the emergence of a civic culture tied to the rule of law and individual dignity. For some, recent trends merely confirm the sentiment that civil society is a Western, secular idea with no relevance to contexts where religion and tradition are deeply woven into the fabric of everyday life. Others argue that civil society has always resonated with key Islamic values, and can be renewed and enriched by the energies that feed the quest for modern, democratic citizenship in emergent and transitional nations.</p>
<p>This landmark survey of social and intellectual trends in diverse contexts challenges many of the facile claims about the Muslim world today that abound in mainstream media as well as scholarly accounts. With contributions by Shirin Akiner, Mohammed Arkoun, Aziz Esmail, Tair Faradov, Abdou Filali-Ansary, Ersin Kalaycioglu, Iftikhar Malik, Ziba Mir-Hosseini, Olivier Roy and Amyn B. Sajoo, this volume will appeal not only to scholars of contemporary culture, politics and religion, but to all those interested in the unfolding of civic modernities in the new millennium.</p>
<p>This volume is a culmination of a year-long project that was highlighted by a series of seminars on civil society hosted by The Institute of Ismaili Studies, beginning in November 2000. Most of the chapters evolved from papers delivered at the seminars where participants ranged from senior academics and policy-makers to community activists, journalists and graduate students.</p>"
"admin","base","Default","downloadable","3","Crossing The Threshold","<p>Based on original field research and the work of various scholars, this publication seeks to explore the important issue of religious identities in South Asia, with particular reference to north India. The current perception of ‘Islam’ and ‘Hinduism’ as two monolithic blocks has its roots in a long and complex historical process during which identities were continuously shaped and reshaped. Even the contemporary period is far from being a reflection of a simplistic vision of two perpetually antagonistic and rival religions in South Asia.</p>
<p>The author suggests that, in order to understand the complexity of this phenomenon, one must first explore the ways in which the categories ‘Hindu’ and ‘Muslim’ emerged in the context of medieval India. During this period, identities were predominately related to caste (jati), sect (panth) and regional traditions. The words ‘Hindu’ and ‘Turk’ or ‘Musulman’ which began to appear as opposite pairs in the devotional literature had a different meaning from that which is now commonly ascribed to them.</p>
<p>Based on her research, focussed on northern India, the author demonstrates the extreme fluidity in these categories, including the existence of many “intermediary” identities that can be termed “liminal”. It has generally been assumed that this resulted from a spontaneous “popular” syncretism, or from the many fruitful exchanges that took place between Muslim mystics and Hindu ascetics. If the role of Sunni Sufism in the interplay between various local religious movements had not been largely studied, the impact of Ismaili Islam would not have been investigated to this day. As such, these studies have left many ideas that merit further exploration.</p>
<p>In examining the different modes of interaction between Hindu and Muslim religious traditions, it becomes clear that one single phenomenon is not responsible for what scholars have called “syncretistic” movements or trends. While sharing sacred spaces and times can be considered a natural or spontaneous phenomenon, it does not imply a shifting of openly claimed identities. The apparent dual Hindu-Muslim character of some sectarian movements, of their founders and shrines, deserves a separate examination and prompts us to revise some of the earlier accepted research in this field.</p>
<p>Compelled due to persecution to adopt religious dissimulation (taqiyya), the Nizari Ismaili communities of India, like other such persecuted minorities, illustrate an example where “liminal” identities continued over time and where individuals became custodians of the “threshold” between communities. While this has been possible in the past, when sharply demarcated identities had not yet emerged, the privileged position of these communities was endangered by the gradual formation of orthodoxies. This phenomenon is linked with the formation and consolidation of states during the later part of Mughal rule.</p>
<p>Later on, the categorizing activities organised by the colonial powers, as well as the reformist and revivalist movements that appeared in the nineteenth century, eventually resulted in the creation of clear-cut identities and antagonistic blocs, which in turn led to increasing conflicts. The formation of two separate states, India and Pakistan, accelerated this process. Most people were compelled to join one of the main “blocs”, thus crossing the threshold that had, for centuries, ensured the continuity of exchanges and the fluidity of identities. The peaceful coexistence and tolerance that mainly resulted from that fluidity, as well as from the diversity of religious traditions, was replaced by increasing conflicts.</p>
<p>Turning to the contemporary period, the author argues that the persistence of shared or liminal religious practices in South Asia tend to contradict the current idea of ‘Islam’ and ‘Hinduism’ as fundamentally opposed traditions. Open resistance to the challenges of communalism and new forms of precautionary dissimulation pave the way for further transformations.</p>"
"admin","base","Default","downloadable","4","Ecstasy & Enlightenment","<p>This publication brings together a number of essays by the author on the devotional and mystical literatures of the Nizari Ismailis in the Indian subcontinent. Most of these essays–some published previously in journals or collective volumes and others appearing here for the first time–focus on the ginans, a large corpus of hymns and poems composed in a variety of Indic languages and attributed to a series of preacher–saints who propagated Ismaili Islam in the subcontinent over several centuries.</p>
<p>In his Introduction to the volume, the author situates the development of the Ismaili tradition in South Asia within three cultural contexts. The first is the broad historical perspective of the Ismaili tariqa as it has manifested and evolved in many different parts of the Muslim world. The second is the Indo–Muslim framework of the growth of Muslim institutions and movements in the Indian subcontinent. The third is the Indic context in which the Ismaili tradition interacted with various local cultures and folk traditions and indigenous religious groups such as the Sufis, bhaktas, sants and yogis. <br />
</p>
<p>It is against the background of these three, overlapping cultural contexts that Dr Asani proceeds in subsequent chapters to explore specific aspects of the ginans, such as their history, themes, prosody and melodies; the devotional character of the ginans and their role in Ismaili religious life; the symbolism of divine love and spiritual marriage in the ginans; and a discussion of some of the questions connected with the issue of authorship of the ginans. There is also a chapter on the development of the git tradition as a related but separate genre of religious poetry among the Ismailis.<br />
</p>
<p>The final two essays are devoted to an examination of the unique Khojki script in which the ginans came to be recorded and which has been hitherto little studied by scholars. Originating in Sind around 10th/16th century, Khojki was developed by the Ismailis of South Asia with the specific purpose of preserving their literature. Dr Asani provides the first systematic analysis of this script, its phonetic system and manuscript tradition. <br />
</p>
<p>The essays in this volume are preceded by a useful Foreword contributed by Professor Annemarie Schimmel, the eminent authority on Islamic mysticism and literary traditions. She notes that ‘Ali Asani’s book is a treasure–trove for everyone who is interested in Ismaili history and thought. It offers important material not only for members of the community, but also to scholars from various branches–be they Islamicists, Indologists, sociologists or historians of religion.’ The book culminates with an appendix of selected mystical and devotional poems in translation.</p>"
"admin","base","Default","downloadable","5","The Fatimids and their Successors in Yaman: The History of an Islamic Community","<p>The recovery of Ismaili manuscript sources in modern times has revealed the diversity of this rich literary heritage, ranging from legal and other exoteric texts to treatises on ta’wil or esoteric exegesis, the hallmark of Ismaili thought, and a variety of theological and philosophical subjects. However, modern progress in Ismaili studies has also shown that the Ismaili da‘is, who were at the same time the scholars and authors of their community, were not particularly interested in historiography. Among the few historical works found in Ismaili literature, the writings of Idris ‘Imad al–Din b. al–Hasan, who led the Musta‘li Tayyibi Ismailis of Yemen as their nineteenth da‘i mutlaq for four decades until his death in 872/1468, occupy a central position. This learned da‘i, who had access to numerous Ismaili sources, in fact, produced several histories including the ‘Uyun al–akhbar, the only comprehensive history of the Ismaili Imams, from the earliest times until the late Fatimid period when Ismailism had already split into its major Nizari and Musta‘li factions.</p>
<p>The seventh and final volume of Idris’ ‘Uyun al–akhbar is published here for the first time in a critical edition prepared by Professor Ayman Fu’ad Sayyid accompanied with a summary English translation. This volume carries the narrative from the time of the Fatimid Caliph–Imam al–Mustansir bi’llah (427–487/1036–1094), and the revival of the Ismaili da‘wa in Yemen under the Sulayhids, to the reigns of al–Mustansir’s next two successors on the Fatimid throne, al–Musta‘li and al–Amir, and the origins of the Tayyibi da‘wa in Yemen under the patronage of the Sulayhid queen al–Malika al–Sayyida (d. 532/1138). This is, indeed, the most important Ismaili source on the early history of the Musta‘li–Tayyibi da‘wa in Yemen reflecting that community’s indigenous tradition. As such, Idris’ account of the origins of Tayyibi Ismailism are in conflict with the version propounded by the Hafizis, the other Musta‘li Ismaili community who recognised as their imams the later Fatimid caliphs, after al–Amir (d. 524/1130), but did not long survive the collapse of the Fatimid dynasty in 567/1171. Similarly, the author’s account of the Nizari–Musta7‘li succession dispute reflects the official view of the Tayyibis, the only surviving Musta‘li community in Yemen and elsewhere — a view that is rejected by the Nizari Ismaili tradition. The Nizaris uphold the rights of Nizar (d. 489/1095), al–Mustansir’s eldest son and original heir–designate who was set aside forcefully in favour of his younger half–brother al–Musta‘li (d. 495/1101) by the all–powerful Fatimid vizier al–Afdal.</p>
<p>The wide range of research projects undertaken, or encouraged, by The Institute of Ismaili Studies serve to reflect pluralism in Islam as well as a diversity of interpretations within Shi‘ism, including not only Ismailism of different branches but Twelver (Ithna‘ashari) and Zaydi Shi‘ism as well. It is in this academic spirit, and in order to further progress in Ismaili studies, that the present important text is offered here in the Ismaili Texts and Translations Series.</p>
<p>Edited from the Foreword by Farhad Daftary</p>"
"admin","base","Default","downloadable","6","Hamid Al-Din Al-Kirmani","<p>The purpose of this book is to introduce a major Ismaili scholar and writer from the time of the Fatimid caliph–Imam al–Hakim bi–amr Allah, who reigned from 386/996 until 411/1021. He is Hamid al–Din Abu’l–Hasan Ahmad b. ‘Abdallah al–Kirmani. So important was his role in the da‘wa (the teaching and proselytising organ of the Ismaili movement) of that era that he deserves recognition alone for his support and defence of his Imam. Beyond that, however, al–Kirmani possessed a profoundly ingenious theoretical mind that allowed him both to master the philosophical and scientific achievements of the best Arabic works of his day and to express these same principles in a way that made sense in terms of the instruction provided by the da‘wa.</p>
</p>
<p>After writing numerous books and treatises that contain a fascinating mixture of religion and philosophy, al–Kirmani ultimately disappeared only to be remembered through them. The histories and chronicles are silent about him. In fact there is now no information about the man or his life that does not derive directly from his own words. Yet we know that he was the first of the great eastern Iranian da‘is to take up residence in Egypt in the capital city of the Imam. And we are fairly certain that he did so after having been summoned there by Khatkin al–Dayf, the Imam’s newly appointed administrative head of the da‘wa. Al–Kirmani’s scholarship was obviously impressive even then and his reputation has grown ever since. Many later Ismailis, who looked back on that period, tended to see it primarily in terms of al–Kirmani’s contributions. It is as if he defined the best of that age and he was its permanent legacy. Although we now know a great deal more about the reign of al–Hakim and many of the events that took place during that time in Egypt and elsewhere, only some of which concerned al–Kirmani, in the literature of thought and the sciences of this period, no other figure in the ‘ came even remotely close to him. It is thus certainly proper in this one sense to regard him as its foremost spokesman and his works as its finest achievement.</p>
</p>
<p>If al–Kirmani had been merely an active agent of the Ismaili da‘wa and not a writer of profoundly influential works of doctrine, he might have been more readily ignored. He also represented a scientific outlook that matches most closely the thought of his contemporary Ibn Sina (Avicenna), and that makes him doubly fascinating. But, ironically, modern scholarship has tended to ignore him except to note in passing his importance both as an outstanding da‘i from that era and a major theologian within the Islamic philosophical tradition. His greatest work was the Rahat al–‘aql (Peace of the Intellect). Once it had been published, its overwhelming complexity, sophistication and resulting difficulty were immediately recognized and admitted. He gained some notice accordingly but still attracted little serious scholarship. Despite the publication of more of his books and treatises in recent decades, few were willing to undertake the arduous task of deciphering, evaluating and ultimately explaining the workings of his mind as it appeared in his individual writings or in his thought as a whole. This deplorable situation finally changed, and changed dramatically, with the publication of Daniel De Smet’s La Quietude de l’Intellect: Neoplatonisme et gnose ismaelienne dans l’oeuvre de Hamid ad–Din al–Kirmani in 1995. De Smet offered an extremely important, full–scale study of his philosophy and its context and sources, at last a truly impressive contribution to the scholarly understanding of al–Kirmani. Nevertheless, much more can and should be said about him; his works are not all in print by any means and those that have been published have appeared in many cases with serious textual problems and flaws. There are as well quite interesting issues of interpretation regarding al–Kirmani’s thought and how to classify it. De Smet has both set an enviable scholarly standard for evaluating what al–Kirmani said in his books and also, in the process, proposed ways to understand it that involve an interpretation which will in itself stimulate further investigation of him.</p>
</p>
<p>This present book, however, was not the appropriate place to engage in the detail and nuance necessary for such scholarly debates. Al–Kirmani remains largely unknown to the reader of English, and thus the most pressing responsibility here was to bring together the information about the man and his works and to provide a guide to his thought in such a way that others – specialists and interested laypersons alike – may follow and understand him. In this instance, an exhaustive treatment was, therefore, postponed in favour of an introduction and a preliminary accounting of the basic facts and ideas. This book therefore examines this great da‘i first as a member of the Ismaili da‘wa and next tries to explain his thought in broad terms. Its purpose is similar to Dr. Walker’s previous study in this same series of al–Kirmani’s equally important predecessor, Abu Ya‘qub al–Sijistani. However, readers of that book will find that the approach here is different. For al–Sijistani a fair amount of previous scholarship already existed. Since, for example, the earlier books and articles by Walker himself on al–Sijistani contained a full apparatus of source citations, he decided for that volume that he could attempt a new interpretation of al–Sijistani without burdening the reader with the distracting array of notes and other academic niceties. For al–Kirmani, however, that was simply not feasible since there existed no foundation for it. Despite De Smet's valuable beginning, many references and details are included here to support what appears in this book. But the author has tried, nevertheless, to keep in mind twin obligations, one to the scholarly expert who will demand to know where the information he relates comes from, and the other to the less expert reader who desires to learn more about the era of al–Hakim and about his ardent supporter, the great da‘i and philosophical theologian, al–Kirmani, whose writings so brilliantly defined Ismaili thought in those momentous times nearly a millennium ago.</p>"
"admin","base","Default","downloadable","7","Intellectual Traditions Islam","<p>The transformation of Islam into one of the great civilisations of the world has been the subject of many studies in recent decades. As Islam spread beyond the Arabian peninsula into the neighbouring regions of Syria, Iraq, Iran, Egypt and beyond to North Africa and Central Asia, it became enriched by the intellectual contributions of a multitude of individuals, communities and cultures in regions that eventually comprised the Muslim world. Indeed, within three centuries, the Islamic world had already become one of the dominant civilisations of the world, characterised by a diversity of literary and intellectual traditions in various fields of learning, while Islam as a religion became elaborated in a plurality of expressions and interpretations. </p>
</p>
<p>To generate discussion on the nature and significance of these developments, The Institute of Ismaili Studies organised a seminar entitled ‘Intellectual Traditions in Islam’ held at the Mellor Centre, Churchill College, University of Cambridge, in August 1994. The one–week seminar was attended by a number of leading scholars and specialists in Islamic studies from around the world, as well as the Institute's academic faculty and invited guests. The key papers presented at the seminar have now become accessible through this publication to a wider audience of scholars, students and the general public.</p>
</p>
<p>The volume opens with an Introduction by Aziz Esmail who explores the meanings of the key concepts of ‘intellect’, ‘tradition’ and ‘Islam’ reflected in the title of the seminar. The ten essays which follow can be divided broadly into three groups, of which the first set is concerned primarily with analysing the variety of internal and external forces which gave rise to the intellectual sciences of early Islam. In his discussion of this complex process, Hugh Kennedy (Intellectual Life in the First Four Centuries of Islam) highlights the crucial role of political discussions about the nature of leadership and membership of the Islamic community. Oliver Leaman (Scientific and Philosophical Enquiry: Achievements and Reactions in Muslim History) places emphasis on the openness of Muslim thinkers to other religious traditions such as Judaism and Christianity, as well as the philosophical and scientific heritage of the Greeks. Muhsin Mahdi (The Rational Tradition in Islam) discusses different notions of rationalism that prevailed in early Islam and draws attention to the concern of a majority of Muslim intellectuals to mitigate the conflicts between reason and revelation and to harmonise the claims of religion and philosophy.</p>
</p>
<p>A second group of essays in the volume is devoted to the examination of intellectual traditions in different Muslim communities. Norman Calder (The Limits of Islamic Orthodoxy) develops a typology of epistemological categories of Islamic thought, on the basis of which he argues that the intellectual tradition of Sunni Islam can be defined in terms of a corpus of literary texts dealing primarily with notions of scripture and community. Farhad Daftary (Intellectual Life Among the Ismailis: An Overview) examines the distinctive features of Ismaili theological and philosophical thought centred on the Shi'i doctrine of Imamate and an esoteric conception of knowledge. His survey is complemented by Alice C. Hunsberger’s focused study on one of the leading Ismaili thinkers of the Fatimid period (Nasir Khusraw: Ismaili Intellectual). This is followed by Annemarie Schimmel's contribution (Reason and Mystical Experience in Sufism) on Sufi perspectives to the intellectual faculty in relation to love as a means of seeking the knowledge of God. </p>
</p>
<p>The common theme underlying the third group of essays is the relationship in Islamic culture between political and religious authority on the one hand and social and intellectual life on the other hand. One perspective is provided by John Cooper (Some Observations on the Religious Intellectual Milieu of Safawid Iran) who explores the political dynamics of this interaction in the context of the transformation of Iran into a Shi'i state in the sixteenth century. Abdulaziz Sachedina (Woman, Half–the–man? The Crisis of Male Epistemology in Islamic Jurisprudence) investigates the ways in which the social status and treatment of women in Iran has come to be determined by the male–dominated Islamic legal tradition. Finally, a more global perspective is presented by Mohammed Arkoun (Present–Day Islam Between its Tradition and Globalization) in his analysis of the historical, ideological and political factors which account for the failure of contemporary Islamic discourse, grounded in the intellectual traditions of the past, to respond creatively to the challenges posed by the forces of modernity and globalisation. </p>
</p>
<p>All the contributors to Intellectual Traditions in Islam highlight, in their different and individual ways, the pivotal role of the intellect in the formation of Islamic culture and civilisation, and its continuing relevance for the Muslim world today. By demonstrating the extent to which some of the seminal achievements of Islamic civilisation, especially in the areas of legal, theological, philosophical, scientific and mystical thought, were underpinned by a vigorous culture of intellectual inquiry and debate, this publication seeks not only to promote a better understanding of Islam but also to encourage further debate on the dilemmas facing contemporary Muslim societies as they enter a new era of unprecedented political, economic, technological and cultural change in world history.</p>"
"admin","base","Default","downloadable","8","
Ismaili and Other Arabic Manuscripts: A Descriptive Catalogue of Manuscripts in the Library of The Institute of Ismaili Studies","<p>This book is a descriptive catalogue of part of the collection of Arabic manuscripts preserved in the Library of The Institute of Ismaili Studies in London. In total, the Library currently holds over 1500 manuscripts in Arabic, Persian, Gujarati and Adam Gacek's Catalogue of Arabic Manuscripts in the Library of The Institute of Ismaili Studies, published in London in two volumes in 1984–5. It lists Arabic texts belonging to the Ismaili literary tradition together with a small portion of non–Ismaili works.</p>
<p>The contents of the book include preface, acknowledgements, abbreviations, 188 entries and indices. The entries are grouped in two parts. Part one deals with Ismaili manuscripts (nos. 1–178) and is arranged according to three sub–headings, namely, Works by Individual Authors, Anonymous Works and Majmu'at (Collected works). Part two lists works by non–Ismaili authors (nos.179–188).</p>
<p>Unlike Gacek's catalogues, here the entries are arranged alphabetically by author. Each catalogue entry is subdivided as follows: 1) Full name of the author, followed in most instances by a short biographical note. 2) In square brackets, there is the sequence number of this catalogue followed by the manuscript call number. 3) The full title of the work, occasionally followed by variants. 4) A paragraph giving details about the contents and relevant information on the work. 5) The name of the copyist, occasionally followed by details relating to the circumstances of the copying of a given manuscript. 6) The dates, when known, according to the Islamic and Christian calendars. 7) The physical description of the codex. 8) References to other copies or volumes of the same work already listed in Gacek's catalogue or in catalogues of other collections, followed by details of main editions, translations and studies when appropriate.</p>
<p>The bulk of the works listed in this catalogue belong to the tradition of theological, philosophical and historical Ismaili literature of the Fatimid period (10th–12th centuries), transferred to India via the Yemeni Tayyibi literary tradition. However, the strength of this collection rests equally on a relatively small number of manuscripts of rare or hitherto unknown works belonging to the Syrian Nizari branch of Ismailism. By and large the subjects covered by the literature presented here include jurisprudence, history, theology, cosmology, eschatology, philosophy, poetry, refutations and devotion.</p>
<p>The manuscripts were mainly copied in Western India and are ‘late’ copies dating, as they generally do, between the first half of the 19th century and the second half of the 20th century. The oldest codex listed in this catalogue is an illuminated copy of the Rasa'il (cat. no.44/1040) by the 10th century Ismaili encyclopedists known as Ikhwan al–Safa’, dated 953 AH/ 1546 CE. The latest dated codex is a copy of the first part of al –Risala al–jami'a (cat. no.47/ 1004) also by the Ikhwan, dated 1378 AH / 1958 CE. Among the Ismaili manuscripts of textual or codicological significance described in this catalogue, there is possibly the oldest known copy of Lubb al–lubab wa nur al–albab (cat. no. 95/926) dated 1256 AH/ 1840 CE and therefore copied during the lifetime of its author ‘Abd–i ‘Ali Shajahanpuri (d. 1854). Also included is a copy of Kitab ta'wil al–zakat (cat. no. 54/ 1028) by the famous early Fatimid da‘i Ja‘far b. Mansur al–Yaman, handwritten in 1291 AH/ 1874 CE by the well–known scholar and author Chand Khan Rampuri (d. after 1304/1886). Listed here is also a relatively rare undated copy of the Ajwibat (cat. no. 71/863) by the famous Fatimid jurist al–Qadi al–Nu'man (d.363/974) as well as a very rare undated copy of Risalat al–fa‘il wa ’l–maf‘ul fi ‘l haqiqa (cat. no. 96/939) by Shaykh Ibrahim b. Shaykh ‘Abd al–Qadir (fl. 13th/19th century).</p>
<p>Among the non–Ismaili manuscripts of particular interest is a recent copy, almost certainly made by Vladimir Ivanow (1886–1970), the foremost pioneer in modern Ismaili studies, of part of a rare 12th–century heresiographical work, the Kitab al–tawarikh wa ‘I–milal by Muhammad b. al–Ghazali (cat.no. 181/843). Also noteworthy is a copy of the Sharh al–isharat, dated 728/1327, by the famous 13th–century scholar and astronomer Nasir al–Din al–Tusi.</p>
<p>The manuscripts listed in this catalogue are all written on paper, mostly of western manufacture, and are mainly bound in European fashion. Some bindings are covered with colourful tailor–made cloth dust jackets for greater protection.The catalogue is enriched throughout by 21 coloured and black and white illustrations and is supported by indices of authors and titles. The volume is available in hard–back cloth binding.</p>"
